Stan and R for Pharmacometrics - 4 Logistic Regression Using brms
…
Convert categorical explanatory variables to factors

lrData <- lrDataRaw %>% 
  mutate(sex = factor(sex, levels = c(0, 1), labels = c("female", "male")),
         cp = factor(cp, levels = 0:3, 
                     labels = c("typical angina", "atypical angina", "non-anginal pain", "asymptomatic")),
         fbs = factor(fbs, levels = c(0, 1), labels = c("false", "true")),
         restecg = factor(restecg, levels = 0:2, labels = c("normal", "abnormal ST", "LV hypertrophy")),
         exang = factor(exang, levels = c(0, 1), labels = c("no", "yes")),
         slope = factor(slope, levels = 0:2, labels = c("upsloping", "flat", "downsloping")),
         thal = factor(thal, levels = 0:2, labels = c("normal", "fixed defect", "reversable defect")))
lrData

# A tibble: 297 x 14
     age sex    cp       trest~1  chol fbs   restecg thalach exang oldpeak slope
   <int> <fct>  <fct>      <int> <int> <fct> <fct>     <int> <fct>   <dbl> <fct>
 1    69 male   typical~     160   234 true  LV hyp~     131 no        0.1 flat 
 2    69 female typical~     140   239 false normal      151 no        1.8 upsl~
 3    66 female typical~     150   226 false normal      114 no        2.6 down~
 4    65 male   typical~     138   282 true  LV hyp~     174 no        1.4 flat 
 5    64 male   typical~     110   211 false LV hyp~     144 yes       1.8 flat 
 6    64 male   typical~     170   227 false LV hyp~     155 no        0.6 flat 
 7    63 male   typical~     145   233 true  LV hyp~     150 no        2.3 down~
 8    61 male   typical~     134   234 false normal      145 no        2.6 flat 
 9    60 female typical~     150   240 false normal      171 no        0.9 upsl~
10    59 male   typical~     178   270 false LV hyp~     145 no        4.2 down~
# ... with 287 more rows, 3 more variables: ca <int>, thal <fct>,
#   condition <int>, and abbreviated variable name 1: trestbps
…
4.11.2 Data Processing

Convert categorical explanatory variables to factors

hoData <- hoRaw %>% 
  mutate(ECOG = factor(ECOG, levels = c(0, 1), labels = c("Active", "Restricted")),
         RACE = factor(RACE, levels = c(0, 1), labels = c("White", "Others")),
         SEX = factor(SEX, levels = c(0, 1), labels = c("Male", "Female")),
         BRNMETS = factor(BRNMETS, levels = c(0, 1), labels = c("No", "Yes")))
hoData

# A tibble: 200 x 7
    DOSE  CAVG ECOG       RACE   SEX    BRNMETS    DV
   <int> <dbl> <fct>      <fct>  <fct>  <fct>   <int>
 1    20  203. Active     White  Female Yes         0
 2    20  202. Restricted White  Female No          0
 3    20  287. Restricted Others Female No          0
 4    20  174. Restricted Others Male   Yes         0
 5    20  270. Active     Others Male   Yes         0
 6    20  265. Active     Others Female No          1
 7    20  206. Restricted Others Female No          0
 8    20  253. Active     Others Male   No          1
 9    20  186. Active     White  Male   No          0
10    20  186. Restricted Others Female No          1
# ... with 190 more rows
…
