Stan and R for Pharmacometrics - Logistic Regression Hands-On With Solution
…
Data Processing

Convert categorical explanatory variables to factors

hoData <- hoRaw %>% 
  mutate(ECOG = factor(ECOG, levels = c(0, 1), labels = c("Active", "Restricted")),
         RACE = factor(RACE, levels = c(0, 1), labels = c("White", "Others")),
         SEX = factor(SEX, levels = c(0, 1), labels = c("Male", "Female")),
         BRNMETS = factor(BRNMETS, levels = c(0, 1), labels = c("No", "Yes")))
hoData

# A tibble: 200 x 7
    DOSE  CAVG ECOG       RACE   SEX    BRNMETS    DV
   <int> <dbl> <fct>      <fct>  <fct>  <fct>   <int>
 1    20  203. Active     White  Female Yes         0
 2    20  202. Restricted White  Female No          0
 3    20  287. Restricted Others Female No          0
 4    20  174. Restricted Others Male   Yes         0
 5    20  270. Active     Others Male   Yes         0
 6    20  265. Active     Others Female No          1
 7    20  206. Restricted Others Female No          0
 8    20  253. Active     Others Male   No          1
 9    20  186. Active     White  Male   No          0
10    20  186. Restricted Others Female No          1
# ... with 190 more rows
…
